## Coverage of LOC_FOOTSLIP
n
seed 1838473132
in
take lamp
xyzzy
on
take rod
e
take cage
w
w
w
drop rod
take bird
take rod
w
d
d
free bird
w
take coins
e
s
take n
u
s
n
d
n
n
plugh
extin
plugh
on
s
s
sw
take
w
kill drago
y
e
e
u
d
n
n
off
plugh
out
s
w
n
s
s
n
in
take water
plugh
on
plove
s
plove
s
s
u
w
wave rod
west
w
w
w
s
s
e
s
kill machi
s
s
n
s
w
n
n
n
nw
d
e
e
e
e
e
n
n
n
off
plugh
plugh
on
s
s
u
n
n
d
bedqu
throw axe
slab
s
d
water plant
u
w
u
reser
H'CFL
n
n
w
u
u
u
u
u